2017-11-29 14:44:01,525 [INFO] /home/vagrant/WDR/lib/common/wdr/__init__.py(42): using WDR (https://wdr.github.io/WDR/) version 0.8.0
2017-11-29 14:44:01,529 [INFO] /home/vagrant/WDR/lib/common/wdr/__init__.py(47): the client is connected to host momdmgwasdev201.metmom.mmih.biz:10703 using SOAP connector
2017-11-29 14:44:01,533 [INFO] /home/vagrant/WDR/lib/common/wdr/__init__.py(51): the target process is DmgrSseDev01/DmgrSse01/dmgr
2017-11-29 14:44:04,775 [INFO] <string>(15): Topology imported
2017-11-29 14:44:04,782 [INFO] <string>(23): Removing Cluster via wdr
2017-11-29 14:44:41,193 [INFO] <string>(26): Changes have been detected, saving them
2017-11-29 14:44:47,642 [INFO] <string>(28): Syncronizing the changes
2017-11-29 14:45:00,812 [INFO] /home/vagrant/WDR/lib/common/wdr/util.py(36): synchronizing node SseNode01
